%YAML 1.1
%TAG !u! tag:unity3d.com,2011:
--- !u!114 &11400000
MonoBehaviour:
  m_ObjectHideFlags: 0
  m_CorrespondingSourceObject: {fileID: 0}
  m_PrefabInstance: {fileID: 0}
  m_PrefabAsset: {fileID: 0}
  m_GameObject: {fileID: 0}
  m_Enabled: 1
  m_EditorHideFlags: 0
  m_Script: {fileID: 11500000, guid: 0beac34c45b64794ea718b7aa6abfcd9, type: 3}
  m_Name: AkWwiseProjectData
  m_EditorClassIdentifier: 
  AcousticTextureWwu:
  - PhysicalPath: Virtual Acoustics\Default Work Unit.wwu
    PathAndIcons:
    - ElementName: Virtual Acoustics
      ObjectType: 5
      guid: 00000000000000000000000000000000
    - ElementName: Default Work Unit
      ObjectType: 12
      guid: 727261c9f7029b43961069eabe3a1ecc
    ParentPath: Virtual Acoustics\Default Work Unit
    guid: 727261c9f7029b43961069eabe3a1ecc
    GuidInternal: 
    m_lastTime: -8585313721826574012
    List: []
  AuxBusWwu:
  - PhysicalPath: Master-Mixer Hierarchy\Default Work Unit.wwu
    PathAndIcons:
    - ElementName: Master-Mixer Hierarchy
      ObjectType: 5
      guid: 00000000000000000000000000000000
    - ElementName: Default Work Unit
      ObjectType: 12
      guid: 2b9d61d3182416429b01f62c73c5390e
    ParentPath: Master-Mixer Hierarchy\Default Work Unit
    guid: 2b9d61d3182416429b01f62c73c5390e
    GuidInternal: 
    m_lastTime: -8585304903779824001
    List:
    - name: Atmos
      guid: d4c8b30b2a32114cbc4c8edf2a8020fc
      id: 3034623661
      PathAndIcons:
      - ElementName: Master-Mixer Hierarchy
        ObjectType: 5
        guid: 00000000000000000000000000000000
      - ElementName: Default Work Unit
        ObjectType: 12
        guid: 2b9d61d3182416429b01f62c73c5390e
      - ElementName: Master Audio Bus
        ObjectType: 2
        guid: d8a41415a61d2a41a17e75ca0c2149f3
      - ElementName: Atmos
        ObjectType: 2
        guid: d4c8b30b2a32114cbc4c8edf2a8020fc
      Path: Master-Mixer Hierarchy\Default Work Unit\Master Audio Bus\Atmos
    - name: Char
      guid: e852e8a79ef57a4a88440e66d868dafa
      id: 4140304029
      PathAndIcons:
      - ElementName: Master-Mixer Hierarchy
        ObjectType: 5
        guid: 00000000000000000000000000000000
      - ElementName: Default Work Unit
        ObjectType: 12
        guid: 2b9d61d3182416429b01f62c73c5390e
      - ElementName: Master Audio Bus
        ObjectType: 2
        guid: d8a41415a61d2a41a17e75ca0c2149f3
      - ElementName: Char
        ObjectType: 2
        guid: e852e8a79ef57a4a88440e66d868dafa
      Path: Master-Mixer Hierarchy\Default Work Unit\Master Audio Bus\Char
    - name: Guns
      guid: 0a324fe75f8b8f4cb4eb553d42927980
      id: 688956056
      PathAndIcons:
      - ElementName: Master-Mixer Hierarchy
        ObjectType: 5
        guid: 00000000000000000000000000000000
      - ElementName: Default Work Unit
        ObjectType: 12
        guid: 2b9d61d3182416429b01f62c73c5390e
      - ElementName: Master Audio Bus
        ObjectType: 2
        guid: d8a41415a61d2a41a17e75ca0c2149f3
      - ElementName: Guns
        ObjectType: 2
        guid: 0a324fe75f8b8f4cb4eb553d42927980
      Path: Master-Mixer Hierarchy\Default Work Unit\Master Audio Bus\Guns
    - name: Master Audio Bus
      guid: d8a41415a61d2a41a17e75ca0c2149f3
      id: 3803692087
      PathAndIcons:
      - ElementName: Master-Mixer Hierarchy
        ObjectType: 5
        guid: 00000000000000000000000000000000
      - ElementName: Default Work Unit
        ObjectType: 12
        guid: 2b9d61d3182416429b01f62c73c5390e
      - ElementName: Master Audio Bus
        ObjectType: 2
        guid: d8a41415a61d2a41a17e75ca0c2149f3
      Path: Master-Mixer Hierarchy\Default Work Unit\Master Audio Bus
  BankWwu:
  - PhysicalPath: SoundBanks\Default Work Unit.wwu
    PathAndIcons:
    - ElementName: SoundBanks
      ObjectType: 5
      guid: 00000000000000000000000000000000
    - ElementName: Default Work Unit
      ObjectType: 12
      guid: 0ddb3aa2a3f6024bb13cbaabc2005026
    ParentPath: SoundBanks\Default Work Unit
    guid: 0ddb3aa2a3f6024bb13cbaabc2005026
    GuidInternal: 
    m_lastTime: -8585305862601526477
    List:
    - name: Master
      guid: 6806f997227d364cad631d18675737bc
      id: 4056684167
      PathAndIcons:
      - ElementName: SoundBanks
        ObjectType: 5
        guid: 00000000000000000000000000000000
      - ElementName: Default Work Unit
        ObjectType: 12
        guid: 0ddb3aa2a3f6024bb13cbaabc2005026
      - ElementName: Master
        ObjectType: 7
        guid: 6806f997227d364cad631d18675737bc
      Path: SoundBanks\Default Work Unit\Master
  EventWwu:
  - PhysicalPath: Events\Default Work Unit.wwu
    PathAndIcons:
    - ElementName: Events
      ObjectType: 5
      guid: 00000000000000000000000000000000
    - ElementName: Default Work Unit
      ObjectType: 12
      guid: dab798a34c03564a91a499e181bac5de
    ParentPath: Events\Default Work Unit
    guid: dab798a34c03564a91a499e181bac5de
    GuidInternal: 
    m_lastTime: -8585301705159495582
    List:
    - name: AMB
      guid: 579302e36704764580d16063971275d7
      id: 1117531639
      PathAndIcons:
      - ElementName: Events
        ObjectType: 5
        guid: 00000000000000000000000000000000
      - ElementName: Default Work Unit
        ObjectType: 12
        guid: dab798a34c03564a91a499e181bac5de
      - ElementName: AMB
        ObjectType: 4
        guid: 579302e36704764580d16063971275d7
      Path: Events\Default Work Unit\AMB
      maxAttenuation: 0
      maxDuration: -1
      minDuration: -1
    - name: AMB_Room
      guid: 36e4524ce83bb145822c4244369688fe
      id: 3202361783
      PathAndIcons:
      - ElementName: Events
        ObjectType: 5
        guid: 00000000000000000000000000000000
      - ElementName: Default Work Unit
        ObjectType: 12
        guid: dab798a34c03564a91a499e181bac5de
      - ElementName: AMB
        ObjectType: 4
        guid: 579302e36704764580d16063971275d7
      - ElementName: AMB_Room
        ObjectType: 3
        guid: 36e4524ce83bb145822c4244369688fe
      Path: Events\Default Work Unit\AMB\AMB_Room
      maxAttenuation: 0
      maxDuration: -1
      minDuration: -1
    - name: AMB_Room_Spot1
      guid: c4fbd325bc38164584ccc5d20fb52615
      id: 1899016623
      PathAndIcons:
      - ElementName: Events
        ObjectType: 5
        guid: 00000000000000000000000000000000
      - ElementName: Default Work Unit
        ObjectType: 12
        guid: dab798a34c03564a91a499e181bac5de
      - ElementName: AMB
        ObjectType: 4
        guid: 579302e36704764580d16063971275d7
      - ElementName: AMB_Room_Spot1
        ObjectType: 3
        guid: c4fbd325bc38164584ccc5d20fb52615
      Path: Events\Default Work Unit\AMB\AMB_Room_Spot1
      maxAttenuation: 10
      maxDuration: -1
      minDuration: -1
    - name: AMB_Room_Spot2
      guid: e77fa5d77782eb4e9c588d77b06f473d
      id: 1899016620
      PathAndIcons:
      - ElementName: Events
        ObjectType: 5
        guid: 00000000000000000000000000000000
      - ElementName: Default Work Unit
        ObjectType: 12
        guid: dab798a34c03564a91a499e181bac5de
      - ElementName: AMB
        ObjectType: 4
        guid: 579302e36704764580d16063971275d7
      - ElementName: AMB_Room_Spot2
        ObjectType: 3
        guid: e77fa5d77782eb4e9c588d77b06f473d
      Path: Events\Default Work Unit\AMB\AMB_Room_Spot2
      maxAttenuation: 10
      maxDuration: -1
      minDuration: -1
    - name: AMB_Street
      guid: 5bccbc427608644e82b2b771f8c1e4e9
      id: 1592801615
      PathAndIcons:
      - ElementName: Events
        ObjectType: 5
        guid: 00000000000000000000000000000000
      - ElementName: Default Work Unit
        ObjectType: 12
        guid: dab798a34c03564a91a499e181bac5de
      - ElementName: AMB
        ObjectType: 4
        guid: 579302e36704764580d16063971275d7
      - ElementName: AMB_Street
        ObjectType: 3
        guid: 5bccbc427608644e82b2b771f8c1e4e9
      Path: Events\Default Work Unit\AMB\AMB_Street
      maxAttenuation: 0
      maxDuration: -1
      minDuration: -1
    - name: Bomb
      guid: bd1483327a560c4da4ebf60e08a3b9ac
      id: 1727945837
      PathAndIcons:
      - ElementName: Events
        ObjectType: 5
        guid: 00000000000000000000000000000000
      - ElementName: Default Work Unit
        ObjectType: 12
        guid: dab798a34c03564a91a499e181bac5de
      - ElementName: AMB
        ObjectType: 4
        guid: 579302e36704764580d16063971275d7
      - ElementName: Bomb
        ObjectType: 3
        guid: bd1483327a560c4da4ebf60e08a3b9ac
      Path: Events\Default Work Unit\AMB\Bomb
      maxAttenuation: 15
      maxDuration: -1
      minDuration: -1
    - name: Breath
      guid: e82129923293a641a65177b446a8f5f0
      id: 1326786195
      PathAndIcons:
      - ElementName: Events
        ObjectType: 5
        guid: 00000000000000000000000000000000
      - ElementName: Default Work Unit
        ObjectType: 12
        guid: dab798a34c03564a91a499e181bac5de
      - ElementName: CHAR
        ObjectType: 4
        guid: 3d3220b753a3244dabf8868c6431e75a
      - ElementName: Breath
        ObjectType: 3
        guid: e82129923293a641a65177b446a8f5f0
      Path: Events\Default Work Unit\CHAR\Breath
      maxAttenuation: 4
      maxDuration: -1
      minDuration: -1
    - name: CHAR
      guid: 3d3220b753a3244dabf8868c6431e75a
      id: 4140304029
      PathAndIcons:
      - ElementName: Events
        ObjectType: 5
        guid: 00000000000000000000000000000000
      - ElementName: Default Work Unit
        ObjectType: 12
        guid: dab798a34c03564a91a499e181bac5de
      - ElementName: CHAR
        ObjectType: 4
        guid: 3d3220b753a3244dabf8868c6431e75a
      Path: Events\Default Work Unit\CHAR
      maxAttenuation: 0
      maxDuration: -1
      minDuration: -1
    - name: Guns
      guid: 17d749346b576d4f80e81cae6a18d67f
      id: 688956056
      PathAndIcons:
      - ElementName: Events
        ObjectType: 5
        guid: 00000000000000000000000000000000
      - ElementName: Default Work Unit
        ObjectType: 12
        guid: dab798a34c03564a91a499e181bac5de
      - ElementName: Guns
        ObjectType: 4
        guid: 17d749346b576d4f80e81cae6a18d67f
      Path: Events\Default Work Unit\Guns
      maxAttenuation: 0
      maxDuration: -1
      minDuration: -1
    - name: H_IN
      guid: e4285198c527e046a21f26b6974d5776
      id: 3777618203
      PathAndIcons:
      - ElementName: Events
        ObjectType: 5
        guid: 00000000000000000000000000000000
      - ElementName: Default Work Unit
        ObjectType: 12
        guid: dab798a34c03564a91a499e181bac5de
      - ElementName: Guns
        ObjectType: 4
        guid: 17d749346b576d4f80e81cae6a18d67f
      - ElementName: H_IN
        ObjectType: 3
        guid: e4285198c527e046a21f26b6974d5776
      Path: Events\Default Work Unit\Guns\H_IN
      maxAttenuation: 0
      maxDuration: 0.650658
      minDuration: 0.544059
    - name: H_Out
      guid: 20578b7f6b5b0244bb1664055cacb780
      id: 2027930038
      PathAndIcons:
      - ElementName: Events
        ObjectType: 5
        guid: 00000000000000000000000000000000
      - ElementName: Default Work Unit
        ObjectType: 12
        guid: dab798a34c03564a91a499e181bac5de
      - ElementName: Guns
        ObjectType: 4
        guid: 17d749346b576d4f80e81cae6a18d67f
      - ElementName: H_Out
        ObjectType: 3
        guid: 20578b7f6b5b0244bb1664055cacb780
      Path: Events\Default Work Unit\Guns\H_Out
      maxAttenuation: 0
      maxDuration: 0.866689
      minDuration: 0.488481
    - name: Locomotion
      guid: dc39a3da96745944a36b8e1a842c7248
      id: 556887514
      PathAndIcons:
      - ElementName: Events
        ObjectType: 5
        guid: 00000000000000000000000000000000
      - ElementName: Default Work Unit
        ObjectType: 12
        guid: dab798a34c03564a91a499e181bac5de
      - ElementName: CHAR
        ObjectType: 4
        guid: 3d3220b753a3244dabf8868c6431e75a
      - ElementName: Locomotion
        ObjectType: 3
        guid: dc39a3da96745944a36b8e1a842c7248
      Path: Events\Default Work Unit\CHAR\Locomotion
      maxAttenuation: 100
      maxDuration: 5.538242
      minDuration: 0.198666
    - name: M16
      guid: 66ad9443e03dfc47a2dbc3def240b3d3
      id: 1853775347
      PathAndIcons:
      - ElementName: Events
        ObjectType: 5
        guid: 00000000000000000000000000000000
      - ElementName: Default Work Unit
        ObjectType: 12
        guid: dab798a34c03564a91a499e181bac5de
      - ElementName: Guns
        ObjectType: 4
        guid: 17d749346b576d4f80e81cae6a18d67f
      - ElementName: M16
        ObjectType: 3
        guid: 66ad9443e03dfc47a2dbc3def240b3d3
      Path: Events\Default Work Unit\Guns\M16
      maxAttenuation: 0
      maxDuration: 8.889502
      minDuration: 2.4
    - name: Metal
      guid: ac60c0298044534d8f4b1f0bd0834d4c
      id: 2473969246
      PathAndIcons:
      - ElementName: Events
        ObjectType: 5
        guid: 00000000000000000000000000000000
      - ElementName: Default Work Unit
        ObjectType: 12
        guid: dab798a34c03564a91a499e181bac5de
      - ElementName: AMB
        ObjectType: 4
        guid: 579302e36704764580d16063971275d7
      - ElementName: Metal
        ObjectType: 3
        guid: ac60c0298044534d8f4b1f0bd0834d4c
      Path: Events\Default Work Unit\AMB\Metal
      maxAttenuation: 100
      maxDuration: -1
      minDuration: -1
    - name: Metal_2
      guid: 2c2c3d8a156dd849b4bb96a3e2c77d29
      id: 3348275853
      PathAndIcons:
      - ElementName: Events
        ObjectType: 5
        guid: 00000000000000000000000000000000
      - ElementName: Default Work Unit
        ObjectType: 12
        guid: dab798a34c03564a91a499e181bac5de
      - ElementName: AMB
        ObjectType: 4
        guid: 579302e36704764580d16063971275d7
      - ElementName: Metal_2
        ObjectType: 3
        guid: 2c2c3d8a156dd849b4bb96a3e2c77d29
      Path: Events\Default Work Unit\AMB\Metal_2
      maxAttenuation: 100
      maxDuration: -1
      minDuration: -1
    - name: Mother
      guid: a3cb06ee8503af45a4bb7dceb0bcdf40
      id: 1643701804
      PathAndIcons:
      - ElementName: Events
        ObjectType: 5
        guid: 00000000000000000000000000000000
      - ElementName: Default Work Unit
        ObjectType: 12
        guid: dab798a34c03564a91a499e181bac5de
      - ElementName: CHAR
        ObjectType: 4
        guid: 3d3220b753a3244dabf8868c6431e75a
      - ElementName: VO
        ObjectType: 4
        guid: a812b941f97cf64fa58ae9e3af3038c8
      - ElementName: Mother
        ObjectType: 3
        guid: a3cb06ee8503af45a4bb7dceb0bcdf40
      Path: Events\Default Work Unit\CHAR\VO\Mother
      maxAttenuation: 0
      maxDuration: 1.766667
      minDuration: 1.766667
    - name: NPC
      guid: 3d6984e398526f4eac5236002fbe6fd0
      id: 662417162
      PathAndIcons:
      - ElementName: Events
        ObjectType: 5
        guid: 00000000000000000000000000000000
      - ElementName: Default Work Unit
        ObjectType: 12
        guid: dab798a34c03564a91a499e181bac5de
      - ElementName: NPC
        ObjectType: 4
        guid: 3d6984e398526f4eac5236002fbe6fd0
      Path: Events\Default Work Unit\NPC
      maxAttenuation: 0
      maxDuration: -1
      minDuration: -1
    - name: NPC_Gun
      guid: 713eee4a571d904b8306c91ef2e01469
      id: 3521016965
      PathAndIcons:
      - ElementName: Events
        ObjectType: 5
        guid: 00000000000000000000000000000000
      - ElementName: Default Work Unit
        ObjectType: 12
        guid: dab798a34c03564a91a499e181bac5de
      - ElementName: NPC
        ObjectType: 4
        guid: 3d6984e398526f4eac5236002fbe6fd0
      - ElementName: NPC_Gun
        ObjectType: 3
        guid: 713eee4a571d904b8306c91ef2e01469
      Path: Events\Default Work Unit\NPC\NPC_Gun
      maxAttenuation: 100
      maxDuration: 8.391132
      minDuration: 2.265298
    - name: Objects
      guid: 5a6384f164c92d4d8a0bbe39f23f447a
      id: 1695690031
      PathAndIcons:
      - ElementName: Events
        ObjectType: 5
        guid: 00000000000000000000000000000000
      - ElementName: Default Work Unit
        ObjectType: 12
        guid: dab798a34c03564a91a499e181bac5de
      - ElementName: AMB
        ObjectType: 4
        guid: 579302e36704764580d16063971275d7
      - ElementName: Objects
        ObjectType: 4
        guid: 5a6384f164c92d4d8a0bbe39f23f447a
      Path: Events\Default Work Unit\AMB\Objects
      maxAttenuation: 0
      maxDuration: -1
      minDuration: -1
    - name: Radio
      guid: 8297687fac6ff94ea6c5ca866d09934c
      id: 2548238350
      PathAndIcons:
      - ElementName: Events
        ObjectType: 5
        guid: 00000000000000000000000000000000
      - ElementName: Default Work Unit
        ObjectType: 12
        guid: dab798a34c03564a91a499e181bac5de
      - ElementName: AMB
        ObjectType: 4
        guid: 579302e36704764580d16063971275d7
      - ElementName: Objects
        ObjectType: 4
        guid: 5a6384f164c92d4d8a0bbe39f23f447a
      - ElementName: Radio
        ObjectType: 3
        guid: 8297687fac6ff94ea6c5ca866d09934c
      Path: Events\Default Work Unit\AMB\Objects\Radio
      maxAttenuation: 25
      maxDuration: -1
      minDuration: -1
    - name: Reload
      guid: 93820dafe1ba1040865a0aff7b03aa3f
      id: 456382354
      PathAndIcons:
      - ElementName: Events
        ObjectType: 5
        guid: 00000000000000000000000000000000
      - ElementName: Default Work Unit
        ObjectType: 12
        guid: dab798a34c03564a91a499e181bac5de
      - ElementName: Guns
        ObjectType: 4
        guid: 17d749346b576d4f80e81cae6a18d67f
      - ElementName: Reload
        ObjectType: 3
        guid: 93820dafe1ba1040865a0aff7b03aa3f
      Path: Events\Default Work Unit\Guns\Reload
      maxAttenuation: 0
      maxDuration: 5.6
      minDuration: 5.6
    - name: Tent
      guid: 10f911e79759494597b38f58aa12c505
      id: 3207335970
      PathAndIcons:
      - ElementName: Events
        ObjectType: 5
        guid: 00000000000000000000000000000000
      - ElementName: Default Work Unit
        ObjectType: 12
        guid: dab798a34c03564a91a499e181bac5de
      - ElementName: AMB
        ObjectType: 4
        guid: 579302e36704764580d16063971275d7
      - ElementName: Tent
        ObjectType: 3
        guid: 10f911e79759494597b38f58aa12c505
      Path: Events\Default Work Unit\AMB\Tent
      maxAttenuation: 10
      maxDuration: -1
      minDuration: -1
    - name: VO
      guid: a812b941f97cf64fa58ae9e3af3038c8
      id: 1534528548
      PathAndIcons:
      - ElementName: Events
        ObjectType: 5
        guid: 00000000000000000000000000000000
      - ElementName: Default Work Unit
        ObjectType: 12
        guid: dab798a34c03564a91a499e181bac5de
      - ElementName: CHAR
        ObjectType: 4
        guid: 3d3220b753a3244dabf8868c6431e75a
      - ElementName: VO
        ObjectType: 4
        guid: a812b941f97cf64fa58ae9e3af3038c8
      Path: Events\Default Work Unit\CHAR\VO
      maxAttenuation: 0
      maxDuration: -1
      minDuration: -1
  RtpcWwu:
  - PhysicalPath: Game Parameters\Default Work Unit.wwu
    PathAndIcons:
    - ElementName: Game Parameters
      ObjectType: 5
      guid: 00000000000000000000000000000000
    - ElementName: Default Work Unit
      ObjectType: 12
      guid: 397552f23fe411498dd1bf52144dcca3
    ParentPath: Game Parameters\Default Work Unit
    guid: 397552f23fe411498dd1bf52144dcca3
    GuidInternal: 
    m_lastTime: -8585301580060334762
    List:
    - name: Car
      guid: ecc99509d9dc1f478fbedbcf1277fea9
      id: 983016381
      PathAndIcons:
      - ElementName: Game Parameters
        ObjectType: 5
        guid: 00000000000000000000000000000000
      - ElementName: Default Work Unit
        ObjectType: 12
        guid: 397552f23fe411498dd1bf52144dcca3
      - ElementName: Car
        ObjectType: 13
        guid: ecc99509d9dc1f478fbedbcf1277fea9
      Path: Game Parameters\Default Work Unit\Car
    - name: Distance
      guid: 48fa642a9844934b9b138b5ecf2b5102
      id: 1240670792
      PathAndIcons:
      - ElementName: Game Parameters
        ObjectType: 5
        guid: 00000000000000000000000000000000
      - ElementName: Default Work Unit
        ObjectType: 12
        guid: 397552f23fe411498dd1bf52144dcca3
      - ElementName: Distance
        ObjectType: 13
        guid: 48fa642a9844934b9b138b5ecf2b5102
      Path: Game Parameters\Default Work Unit\Distance
    - name: Distance_NPC_Gun
      guid: f047225d9d1f4f43bb8f843ddf4d01ad
      id: 1556981455
      PathAndIcons:
      - ElementName: Game Parameters
        ObjectType: 5
        guid: 00000000000000000000000000000000
      - ElementName: Default Work Unit
        ObjectType: 12
        guid: 397552f23fe411498dd1bf52144dcca3
      - ElementName: Distance_NPC_Gun
        ObjectType: 13
        guid: f047225d9d1f4f43bb8f843ddf4d01ad
      Path: Game Parameters\Default Work Unit\Distance_NPC_Gun
    - name: Elevation
      guid: f8749073b46b7c4685edb1ad50073b19
      id: 2141048674
      PathAndIcons:
      - ElementName: Game Parameters
        ObjectType: 5
        guid: 00000000000000000000000000000000
      - ElementName: Default Work Unit
        ObjectType: 12
        guid: 397552f23fe411498dd1bf52144dcca3
      - ElementName: Elevation
        ObjectType: 13
        guid: f8749073b46b7c4685edb1ad50073b19
      Path: Game Parameters\Default Work Unit\Elevation
    - name: GunAmmoCount
      guid: c898757be7c198428830f5d09c71cad5
      id: 3518203872
      PathAndIcons:
      - ElementName: Game Parameters
        ObjectType: 5
        guid: 00000000000000000000000000000000
      - ElementName: Default Work Unit
        ObjectType: 12
        guid: 397552f23fe411498dd1bf52144dcca3
      - ElementName: GunAmmoCount
        ObjectType: 13
        guid: c898757be7c198428830f5d09c71cad5
      Path: Game Parameters\Default Work Unit\GunAmmoCount
    - name: PlayerWeapon
      guid: 410627c8cf2f924f92995498c96bc62d
      id: 2901534458
      PathAndIcons:
      - ElementName: Game Parameters
        ObjectType: 5
        guid: 00000000000000000000000000000000
      - ElementName: Default Work Unit
        ObjectType: 12
        guid: 397552f23fe411498dd1bf52144dcca3
      - ElementName: PlayerWeapon
        ObjectType: 13
        guid: 410627c8cf2f924f92995498c96bc62d
      Path: Game Parameters\Default Work Unit\PlayerWeapon
    - name: Stamina
      guid: fde95525e8af03419f05a804530e166c
      id: 1771880628
      PathAndIcons:
      - ElementName: Game Parameters
        ObjectType: 5
        guid: 00000000000000000000000000000000
      - ElementName: Default Work Unit
        ObjectType: 12
        guid: 397552f23fe411498dd1bf52144dcca3
      - ElementName: Stamina
        ObjectType: 13
        guid: fde95525e8af03419f05a804530e166c
      Path: Game Parameters\Default Work Unit\Stamina
  StateWwu:
  - PhysicalPath: States\Default Work Unit.wwu
    PathAndIcons:
    - ElementName: States
      ObjectType: 5
      guid: 00000000000000000000000000000000
    - ElementName: Default Work Unit
      ObjectType: 12
      guid: c1e0c437bb624b45b18940abe707a3e9
    ParentPath: States\Default Work Unit
    guid: c1e0c437bb624b45b18940abe707a3e9
    GuidInternal: 
    m_lastTime: -8585313721826796004
    List:
    - name: AMB
      guid: b1a8456b39f07d49b1d4bb360d09110d
      id: 1117531639
      PathAndIcons:
      - ElementName: States
        ObjectType: 5
        guid: 00000000000000000000000000000000
      - ElementName: Default Work Unit
        ObjectType: 12
        guid: c1e0c437bb624b45b18940abe707a3e9
      - ElementName: AMB
        ObjectType: 9
        guid: b1a8456b39f07d49b1d4bb360d09110d
      Path: States\Default Work Unit\AMB
      values:
      - name: Inside
        guid: 9ba264262d6b364faca313dea175b823
        id: 3553349781
        PathAndIcons:
        - ElementName: States
          ObjectType: 5
          guid: 00000000000000000000000000000000
        - ElementName: Default Work Unit
          ObjectType: 12
          guid: c1e0c437bb624b45b18940abe707a3e9
        - ElementName: AMB
          ObjectType: 9
          guid: b1a8456b39f07d49b1d4bb360d09110d
        - ElementName: Inside
          ObjectType: 8
          guid: 9ba264262d6b364faca313dea175b823
      - name: None
        guid: be80955f8fa7e3498582de8b4299ab68
        id: 748895195
        PathAndIcons:
        - ElementName: States
          ObjectType: 5
          guid: 00000000000000000000000000000000
        - ElementName: Default Work Unit
          ObjectType: 12
          guid: c1e0c437bb624b45b18940abe707a3e9
        - ElementName: AMB
          ObjectType: 9
          guid: b1a8456b39f07d49b1d4bb360d09110d
        - ElementName: None
          ObjectType: 8
          guid: be80955f8fa7e3498582de8b4299ab68
      - name: Outside
        guid: ef09e078f55d384baa78ce2f298a6f75
        id: 438105790
        PathAndIcons:
        - ElementName: States
          ObjectType: 5
          guid: 00000000000000000000000000000000
        - ElementName: Default Work Unit
          ObjectType: 12
          guid: c1e0c437bb624b45b18940abe707a3e9
        - ElementName: AMB
          ObjectType: 9
          guid: b1a8456b39f07d49b1d4bb360d09110d
        - ElementName: Outside
          ObjectType: 8
          guid: ef09e078f55d384baa78ce2f298a6f75
      ValueGuids: []
      ValueIcons: []
      valuesInternal: []
  SwitchWwu:
  - PhysicalPath: Switches\Default Work Unit.wwu
    PathAndIcons:
    - ElementName: Switches
      ObjectType: 5
      guid: 00000000000000000000000000000000
    - ElementName: Default Work Unit
      ObjectType: 12
      guid: 4152e3252457984fbe240e8658ddeb75
    ParentPath: Switches\Default Work Unit
    guid: 4152e3252457984fbe240e8658ddeb75
    GuidInternal: 
    m_lastTime: -8585304943271108136
    List:
    - name: Locomotion
      guid: 809c85159e4aa44d81cafe283e33431e
      id: 556887514
      PathAndIcons:
      - ElementName: Switches
        ObjectType: 5
        guid: 00000000000000000000000000000000
      - ElementName: Default Work Unit
        ObjectType: 12
        guid: 4152e3252457984fbe240e8658ddeb75
      - ElementName: Locomotion
        ObjectType: 11
        guid: 809c85159e4aa44d81cafe283e33431e
      Path: Switches\Default Work Unit\Locomotion
      values:
      - name: Running
        guid: 7f7b90e95865b4428bef81aa5a2a79e4
        id: 3863236874
        PathAndIcons:
        - ElementName: Switches
          ObjectType: 5
          guid: 00000000000000000000000000000000
        - ElementName: Default Work Unit
          ObjectType: 12
          guid: 4152e3252457984fbe240e8658ddeb75
        - ElementName: Locomotion
          ObjectType: 11
          guid: 809c85159e4aa44d81cafe283e33431e
        - ElementName: Running
          ObjectType: 10
          guid: 7f7b90e95865b4428bef81aa5a2a79e4
      - name: Walking
        guid: 869ec55845e4c347b41c2c94ae16633c
        id: 340271938
        PathAndIcons:
        - ElementName: Switches
          ObjectType: 5
          guid: 00000000000000000000000000000000
        - ElementName: Default Work Unit
          ObjectType: 12
          guid: 4152e3252457984fbe240e8658ddeb75
        - ElementName: Locomotion
          ObjectType: 11
          guid: 809c85159e4aa44d81cafe283e33431e
        - ElementName: Walking
          ObjectType: 10
          guid: 869ec55845e4c347b41c2c94ae16633c
      ValueGuids: []
      ValueIcons: []
      valuesInternal: []
    - name: M16
      guid: d0ee8a8a63a1ea4d98b66c871ddba93d
      id: 1853775347
      PathAndIcons:
      - ElementName: Switches
        ObjectType: 5
        guid: 00000000000000000000000000000000
      - ElementName: Default Work Unit
        ObjectType: 12
        guid: 4152e3252457984fbe240e8658ddeb75
      - ElementName: M16
        ObjectType: 11
        guid: d0ee8a8a63a1ea4d98b66c871ddba93d
      Path: Switches\Default Work Unit\M16
      values:
      - name: Outdoor
        guid: d357b6997748ea45b55a46bdcd02c4da
        id: 144697359
        PathAndIcons:
        - ElementName: Switches
          ObjectType: 5
          guid: 00000000000000000000000000000000
        - ElementName: Default Work Unit
          ObjectType: 12
          guid: 4152e3252457984fbe240e8658ddeb75
        - ElementName: M16
          ObjectType: 11
          guid: d0ee8a8a63a1ea4d98b66c871ddba93d
        - ElementName: Outdoor
          ObjectType: 10
          guid: d357b6997748ea45b55a46bdcd02c4da
      - name: Room
        guid: 4f514f0388e7c64d977996454641e648
        id: 2077253480
        PathAndIcons:
        - ElementName: Switches
          ObjectType: 5
          guid: 00000000000000000000000000000000
        - ElementName: Default Work Unit
          ObjectType: 12
          guid: 4152e3252457984fbe240e8658ddeb75
        - ElementName: M16
          ObjectType: 11
          guid: d0ee8a8a63a1ea4d98b66c871ddba93d
        - ElementName: Room
          ObjectType: 10
          guid: 4f514f0388e7c64d977996454641e648
      - name: Street
        guid: 6815af8eb1fb9846bf30124d78a7ae97
        id: 4142189312
        PathAndIcons:
        - ElementName: Switches
          ObjectType: 5
          guid: 00000000000000000000000000000000
        - ElementName: Default Work Unit
          ObjectType: 12
          guid: 4152e3252457984fbe240e8658ddeb75
        - ElementName: M16
          ObjectType: 11
          guid: d0ee8a8a63a1ea4d98b66c871ddba93d
        - ElementName: Street
          ObjectType: 10
          guid: 6815af8eb1fb9846bf30124d78a7ae97
      ValueGuids: []
      ValueIcons: []
      valuesInternal: []
    - name: Surf
      guid: 9df0ad0ae2eaf54a856308692df26e48
      id: 336035877
      PathAndIcons:
      - ElementName: Switches
        ObjectType: 5
        guid: 00000000000000000000000000000000
      - ElementName: Default Work Unit
        ObjectType: 12
        guid: 4152e3252457984fbe240e8658ddeb75
      - ElementName: Surf
        ObjectType: 11
        guid: 9df0ad0ae2eaf54a856308692df26e48
      Path: Switches\Default Work Unit\Surf
      values:
      - name: Concrete
        guid: 999cd6694d329d459edc66ec08e55f6f
        id: 841620460
        PathAndIcons:
        - ElementName: Switches
          ObjectType: 5
          guid: 00000000000000000000000000000000
        - ElementName: Default Work Unit
          ObjectType: 12
          guid: 4152e3252457984fbe240e8658ddeb75
        - ElementName: Surf
          ObjectType: 11
          guid: 9df0ad0ae2eaf54a856308692df26e48
        - ElementName: Concrete
          ObjectType: 10
          guid: 999cd6694d329d459edc66ec08e55f6f
      - name: Tile
        guid: 4610c274e55b784791be42596292bfa6
        id: 2637588553
        PathAndIcons:
        - ElementName: Switches
          ObjectType: 5
          guid: 00000000000000000000000000000000
        - ElementName: Default Work Unit
          ObjectType: 12
          guid: 4152e3252457984fbe240e8658ddeb75
        - ElementName: Surf
          ObjectType: 11
          guid: 9df0ad0ae2eaf54a856308692df26e48
        - ElementName: Tile
          ObjectType: 10
          guid: 4610c274e55b784791be42596292bfa6
      ValueGuids: []
      ValueIcons: []
      valuesInternal: []
  TriggerWwu:
  - PhysicalPath: Triggers\Default Work Unit.wwu
    PathAndIcons:
    - ElementName: Triggers
      ObjectType: 5
      guid: 00000000000000000000000000000000
    - ElementName: Default Work Unit
      ObjectType: 12
      guid: 74c53a6a067bee4ab8f7072d86b72702
    ParentPath: Triggers\Default Work Unit
    guid: 74c53a6a067bee4ab8f7072d86b72702
    GuidInternal: 
    m_lastTime: -8585322976827585144
    List: []
  ExpandedFileSystemItemIds: 
  ExpandedWaapiItemIds: 0100000005000000060000000700000008000000090000000a0000000b0000000d0000000e000000100000001100000013000000
  AutoSyncSelection: 0
  autoPopulateEnabled: 1
  currentDataSource: 0
  CurrentPluginConfig: 
