%YAML 1.1
%TAG !u! tag:unity3d.com,2011:
--- !u!114 &11400000
MonoBehaviour:
  m_ObjectHideFlags: 0
  m_CorrespondingSourceObject: {fileID: 0}
  m_PrefabInstance: {fileID: 0}
  m_PrefabAsset: {fileID: 0}
  m_GameObject: {fileID: 0}
  m_Enabled: 1
  m_EditorHideFlags: 0
  m_Script: {fileID: 11500000, guid: b95e13b7bff7c884aa37d8a59456619c, type: 3}
  m_Name: 034F514F-E788-4DC6-9779-96454641E648
  m_EditorClassIdentifier: 
  objectName: Room
  id: 2077253480
  guid: 034F514F-E788-4DC6-9779-96454641E648
  WwiseSwitchGroupReference: {fileID: 11400000, guid: 6467b4169d4d338408ebf45838c271bc, type: 2}
